Как Express обрабатывает входящие парамеры.

Отправил:
http://localhost:8080/test?foo[t1]=123&foo[t1]=456&foo[t2]=456&bar=log&foo.t3=789

Получил:
query {
  foo: { t1: [ '123', '456' ], t2: '456' },
  bar: 'log',
  'foo.t3': '789'
}

-----------------------------------

foo=123&bar=456 —— {foo: '123', bar: '456'}
foo=123&foo=456 —— {foo: ['123', '456']}
foo[k1]=123&foo[k2]=456 —— {foo: {k1: '123', k2: '456'}}
foo.k1=123&foo.k2=456 —— {'foo.k1': '123', 'foo.k2': '456'}

-----------------------------------

Отправил:
http://localhost:8080/test?foo[t1][k1]=123&foo[t1][k2]=456&foo[t2]=456

Получил:
{ foo: { t1: { k1: '123', k2: '456' }, t2: '456' } }
